Intro to tidy data
…
But if we want something thats not the mean? We have rowSums, but no rowSds, rowMedians, basically anything else. However, if we had tidy data, we would not have to rely on special functions like rowMeans. So, lets do something better.

The data currently has a variable (month) in its columns. Focusing on the values as we discussed above, there are only three variables: year, month, and temperature. If the data were tidy, then these would be the only columns.

To make data longer, we use the pivot_longer function:

temps %>% pivot_longer(jan:dec)

## # A tibble: 1,428 x 3
##     year name  value
##    <dbl> <chr> <dbl>
##  1  1900 jan     5.3
##  2  1900 feb     3.6
##  3  1900 mar     4.3
##  4  1900 apr     9.3
##  5  1900 may    11.2
##  6  1900 jun    15  
##  7  1900 jul    18.9
##  8  1900 aug    16.5
##  9  1900 sep    15.2
## 10  1900 oct    11  
## #  with 1,418 more rows
…
1900
jun
15.0

Together, this gives us what we need to replicate the rowMeans solution in a tidy fashion. This would involve computing the average temperature in each year in this long data. That is, we need to group the data by a specific column, and then summarize the values within each group.

We can do that with group_by and summarize. group_by is an operation that collects together sets of rows based on a common value. Then, we typically use the summarize() function (or summarise) to transform the values in each group according to some rule. Here, we use the standard R mean function to get the mean of the temperatures in each group. This gives us a similar result to the rowMeans above.

long_temps %>% group_by(year) %>% summarize(mean_temp = mean(temp))

## `summarise()` ungrouping output (override with `.groups` argument)

## # A tibble: 119 x 2
##     year mean_temp
##    <dbl>     <dbl>
##  1  1900     10.5 
##  2  1901      9.88
##  3  1902      9.81
##  4  1903     10.3 
##  5  1904     10.0 
##  6  1905      9.97
##  7  1906     10.4 
##  8  1907      9.88
##  9  1908     10.5 
## 10  1909      9.53
## #  with 109 more rows
…
