What do you mean?
…
## # A tibble: 2 x 2
##   is_freehold `n()`
##   <lgl>       <int>
## 1 FALSE        1050
## 2 TRUE         7780

2. A Linear Model

Fit a linear model that predicts listing price using a unique mean in each year.22 Be careful! In this model, are years numbers or categories? Interpreting this model:

yearly_price_model = lm(price ~ as.factor(year), data=sales)
broom::tidy(yearly_price_model)

## # A tibble: 23 x 5
##    term                estimate std.error statistic  p.value
##    <chr>                  <dbl>     <dbl>     <dbl>    <dbl>
##  1 (Intercept)           70288.     5425.    13.0   2.22e-38
##  2 as.factor(year)1996   -2963.     5516.    -0.537 5.91e- 1
##  3 as.factor(year)1997    2458.     5498.     0.447 6.55e- 1
##  4 as.factor(year)1998    9397.     5497.     1.71  8.74e- 2
##  5 as.factor(year)1999   19793.     5490.     3.61  3.12e- 4
##  6 as.factor(year)2000   35597.     5500.     6.47  9.70e-11
##  7 as.factor(year)2001   51576.     5492.     9.39  5.94e-21
##  8 as.factor(year)2002   76886.     5491.    14.0   1.55e-44
##  9 as.factor(year)2003   97455.     5498.    17.7   2.94e-70
## 10 as.factor(year)2004  114019.     5494.    20.8   1.34e-95
## #  with 13 more rows
…
Moving to bias, the model has a fixed effect in each year, so it is unbiased when predicting the years observations. Thus, on average, the errors cancel out within each year:

sales %>% mutate(residual = residuals(yearly_price_model)) %>% group_by(year) %>% summarize(mean(residual))

## `summarise()` ungrouping output (override with `.groups` argument)

## # A tibble: 23 x 2
##     year `mean(residual)`
##    <dbl>            <dbl>
##  1  1995  -0.000000462   
##  2  1996   0.00000000530 
##  3  1997   0.000000000559
##  4  1998  -0.00000000268 
##  5  1999   0.00000000310 
##  6  2000  -0.00000000131 
##  7  2001   0.00000000808 
##  8  2002   0.00000000100 
##  9  2003   0.000000000439
## 10  2004  -0.000000000443
## #  with 13 more rows
…
