What do you mean?
…
## # A tibble: 4 x 2
##   property_type `mean(residual)`
##   <chr>                    <dbl>
## 1 detached                97605.
## 2 flat                   -34589.
## 3 semidetached             -201.
## 4 terraced               -18128.

But, its not really biased in years, since weve included those as group variables already:

sales %>% mutate(residual = residuals(model1)) %>% group_by(year) %>% summarize(mean(residual))

## `summarise()` ungrouping output (override with `.groups` argument)

## # A tibble: 23 x 2
##     year `mean(residual)`
##    <dbl>            <dbl>
##  1  1995         1.38e-12
##  2  1996         2.11e-12
##  3  1997        -4.27e-13
##  4  1998        -7.00e-14
##  5  1999         7.18e-13
##  6  2000         5.05e-12
##  7  2001         1.45e-12
##  8  2002        -4.24e-12
##  9  2003         1.36e-11
## 10  2004        -4.26e-13
## #  with 13 more rows

You can also see its heteroskedastic using similar methods:

sales %>% mutate(residual = residuals(model1)) %>% group_by(year) %>% summarize(sd(residual))

## `summarise()` ungrouping output (override with `.groups` argument)

## # A tibble: 23 x 2
##     year `sd(residual)`
##    <dbl>          <dbl>
##  1  1995         51741.
##  2  1996         42123.
##  3  1997         46776.
##  4  1998         54421.
##  5  1999         57615.
##  6  2000         80572.
##  7  2001         82635.
##  8  2002         94216.
##  9  2003         97064.
## 10  2004        111873.
## #  with 13 more rows
…
